﻿Приложение № 20																																																																																																																																
к Приказу ФМС России от 28.06.2010 № 147																																																																																																																																
																																																																																																																																
(в ред. Приказа ФМС России от 12.03.2015 № 149)																																																																																																																																
																																																																																																																																
ФОРМА																																																																																																																																
УВЕДОМЛЕНИЯ О ПРЕКРАЩЕНИИ (РАСТОРЖЕНИИ) ТРУДОВОГО ДОГОВОРА																																																																																																																																
ИЛИ ГРАЖДАНСКО-ПРАВОВОГО ДОГОВОРА НА ВЫПОЛНЕНИЕ РАБОТ (ОКАЗАНИЕ																																																																																																																																
УСЛУГ) С ИНОСТРАННЫМ ГРАЖДАНИНОМ ИЛИ ЛИЦОМ БЕЗ ГРАЖДАНСТВА																																																																																																																																
																																																																																																																																
УВЕДОМЛЕНИЕ О ПРЕКРАЩЕНИИ (РАСТОРЖЕНИИ) ТРУДОВОГО ДОГОВОРА ИЛИ																																																																																																																																
ГРАЖДАНСКО-ПРАВОВОГО ДОГОВОРА НА ВЫПОЛНЕНИЕ РАБОТ (ОКАЗАНИЕ УСЛУГ)																																																																																																																																
С ИНОСТРАННЫМ ГРАЖДАНИНОМ ИЛИ ЛИЦОМ БЕЗ ГРАЖДАНСТВА																																																																																																																																
																																																																																																																																
Настоящее уведомление предоставляется в:																																																																																																																																
																																																																																																																																
																								Кр1			Кр2			Кр3			Кр4			Кр5			Кр6			Кр7			Кр8			Кр9			Кр10			Кр11			Кр12			Кр13			Кр14			Кр15			Кр16			Кр17			Кр18			Кр19			Кр20			Кр21			Кр22			Кр23			Кр24			Кр25			Кр26			Кр27			Кр28			Кр29			Кр30			Кр31			Кр32			Кр33			Кр34			Кр35		
(наименование территориального органа ФМС России в соответствующем субъекте Российской Федерации)																																																																																																																																
1. Статус работодателя или заказчика работ (услуг):																																																	(нужное отметить																		x		или					v		)																																																				
																																																																																																																																
V				юридическое лицо																																																	"иное лицо, чья профессиональная деятельность в соответствии с федеральными 
законами подлежит государственной регистрации и (или) лицензированию"																																																																											
																																																																																																																																
				индивидуальный предприниматель																																																	представительство иностранного юридического лица																																																																											
																																																																																																																																
				адвокат, учредивший адвокатский кабинет																																																	филиал иностранного юридического лица																																																																											
																																																																																																																																
				физическое лицо - гражданин Российской Федерации																																																	частный нотариус																																																																											

"Основной вид экономической деятельности в соответствии с Общероссийским классификатором видов экономической деятельности (ОКВЭД) 
(не заполняется работодателем или заказчиком работ (услуг), являющимся физическим лицом - гражданином Российской Федерации):"																																																																																																																																
ОКВЭД1			ОКВЭД2			ОКВЭД3			ОКВЭД4			ОКВЭД5			ОКВЭД6			ОКВЭД7			ОКВЭД8			ОКВЭД9			ОКВЭД10			ОКВЭД11			ОКВЭД12			ОКВЭД13			ОКВЭД14			ОКВЭД15			ОКВЭД16			ОКВЭД17			ОКВЭД18			ОКВЭД19			ОКВЭД20			ОКВЭД21			ОКВЭД22			ОКВЭД23			ОКВЭД24			ОКВЭД25			ОКВЭД26			ОКВЭД27			ОКВЭД28			ОКВЭД29			ОКВЭД30			ОКВЭД31			ОКВЭД32			ОКВЭД33			ОКВЭД34			ОКВЭД35			ОКВЭД36			ОКВЭД37			ОКВЭД38			ОКВЭД39			ОКВЭД40			ОКВЭД41			ОКВЭД42			ОКВЭД43		
Сведения о работодателе или заказчике работ (услуг):																																																																																																																																
О			Б			Щ			Е			С			Т			В			О						С						О			Г			Р			А			Н			И			Ч			Е			Н			Н			О			Й						О			Т			В			Е			Т			С			Т			В			Е			Н			Н			О			С			Т			Ь			Ю											
"(полное наименование юридического лица/филиала иностранного юридического лица/представительства иностранного юридического лица, фамилия,
имя, отчество (при наличии) индивидуального предпринимателя/адвоката, учредившего адвокатский кабинет/"																																																																																																																																
НаимОрг1			НаимОрг2			НаимОрг3			НаимОрг4			НаимОрг5			НаимОрг6			НаимОрг7			НаимОрг8			НаимОрг9			НаимОрг10			НаимОрг11			НаимОрг12			НаимОрг13			НаимОрг14			НаимОрг15			НаимОрг16			НаимОрг17			НаимОрг18			НаимОрг19			НаимОрг20			НаимОрг21			НаимОрг22			НаимОрг23			НаимОрг24			НаимОрг25			НаимОрг26			НаимОрг27			НаимОрг28			НаимОрг29			НаимОрг30			НаимОрг31			НаимОрг32			НаимОрг33			НаимОрг34			НаимОрг35			НаимОрг36			НаимОрг37			НаимОрг38			НаимОрг39			НаимОрг40			НаимОрг41			НаимОрг42			НаимОрг43		
(частного нотариуса/физического лица - гражданина Российской Федерации)																																																																																																																																
ОГРН1			ОГРН2			ОГРН3			ОГРН4			ОГРН5			ОГРН6			ОГРН7			ОГРН8			ОГРН9			ОГРН10			ОГРН11			ОГРН12			ОГРН13			ОГРН14			ОГРН15																																																																																						
																																																																																																																																
																																																																																																																																
"(для юридических лиц - номер свидетельства о государственной регистрации юридического лица, 
для филиалов или представительств иностранных юридических лиц - номер документа, подтверждающего факт аккредитации филиала или 
представительства иностранного юридического лица, для индивидуальных предпринимателей - номер свидетельства о государственной регистрации физического лица в качестве индивидуального предпринимателя, для частных нотариусов - номер лицензии на право нотариальной деятельности, 
для физического лица - наименование документа, удостоверяющего личность, его серия и номер, кем и когда выдан)"																																																																																																																																
ИНН1			ИНН2			ИНН3			ИНН4			ИНН5			ИНН6			ИНН7			ИНН8			ИНН9			ИНН10			ИНН11			ИНН12			ИНН13			ИНН14			ИНН15			ИНН16			ИНН17			ИНН18			ИНН19			ИНН20			ИНН21			ИНН22			ИНН23			ИНН24			ИНН25			ИНН26			ИНН27			ИНН28			ИНН29			ИНН30			ИНН31			ИНН32			ИНН33			ИНН34			ИНН35			ИНН36			ИНН37			ИНН38			ИНН39			ИНН40			ИНН41			ИНН42			ИНН43		
(номер свидетельства о постановке на учет в налоговом органе, ИНН (при наличии), КПП (при наличии))																																																																																																																																
АОрг1			АОрг2			АОрг3			АОрг4			АОрг5			АОрг6			АОрг7			АОрг8			АОрг9			АОрг10			АОрг11			АОрг12			АОрг13			АОрг14			АОрг15			АОрг16			АОрг17			АОрг17			АОрг18			АОрг19			АОрг20			АОрг21			АОрг22			АОрг23			АОрг24			АОрг25			АОрг26			АОрг27			АОрг28			АОрг29			АОрг30			АОрг31			АОрг32			АОрг33			АОрг34			АОрг35			АОрг36			АОрг37			АОрг38			АОрг39			АОрг40			АОрг41			АОрг42		
																																																																																																																																
АОрг43			АОрг44			АОрг45			АОрг46			АОрг47			АОрг48			АОрг49			АОрг50			АОрг51			АОрг52			АОрг53			АОрг54			АОрг55			АОрг56			АОрг57			АОрг58			АОрг59			АОрг60			АОрг61			АОрг62			АОрг63			АОрг64			АОрг65			АОрг66			АОрг67			АОрг68			АОрг69			АОрг70			АОрг71			АОрг72			АОрг73			АОрг74			АОрг75			АОрг76			АОрг77			АОрг78			АОрг79			АОрг80			АОрг81			АОрг82			АОрг83			АОрг84			АОрг85		
																																																																																																																																
АОрг86			АОрг87			АОрг88			АОрг89			АОрг90			АОрг91			АОрг92			АОрг93			АОрг94			АОрг95			АОрг96			АОрг97			АОрг98			АОрг99			АОрг100			АОрг101			АОрг102			АОрг103			АОрг104			АОрг105			АОрг106			АОрг107			АОрг108			АОрг109			АОрг110			АОрг111			АОрг112			АОрг113			АОрг114			АОрг115			АОрг116			АОрг117			АОрг118			АОрг119			АОрг120			АОрг121			АОрг122			АОрг123			АОрг124			АОрг125			АОрг126			АОрг127			АОрг128		
																																																																																																																																
АОрг129			АОрг130			АОрг131			АОрг132			АОрг133			АОрг134			АОрг135			АОрг136			АОрг137			АОрг138			АОрг139			АОрг140			АОрг141			АОрг142			АОрг143			АОрг144			АОрг145			АОрг146			АОрг147			АОрг148			АОрг149			АОрг150			АОрг151			АОрг152			АОрг153			АОрг154			АОрг155			АОрг156			АОрг157			АОрг158			АОрг159			АОрг160			АОрг161			АОрг162			АОрг163			АОрг164			АОрг165			АОрг166			АОрг167			АОрг168			АОрг169			АОрг170			АОрг171		
(адрес места нахождения (для физического лица - адрес фактического места жительства) работодателя или заказчика работ (услуг))																																																																																																																																
Контактный телефон:																																																																																																																																
																																																																																																																																
"2._Сведения об иностранном гражданине, с которым работодателем или заказчиком работ (услуг) заключен трудовой договор или гражданско-
правовой договор на выполнение работ (оказание услуг):"																																																																																																																																
Фамилия:																								Фам1			Фам2			Фам3			Фам4			Фам5			Фам6			Фам7			Фам8			Фам9			Фам10			Фам11			Фам12			Фам13			Фам14			Фам15			Фам16			Фам17			Фам18			Фам19			Фам20			Фам21			Фам22			Фам23			Фам24			Фам25			Фам26			Фам27			Фам28			Фам29			Фам30			Фам31			Фам32			Фам33			Фам34			Фам35		
																																																																																																																																
Имя:																								Имя1			Имя2			Имя3			Имя4			Имя5			Имя6			Имя7			Имя8			Имя9			Имя10			Имя11			Имя12			Имя13			Имя14			Имя15			Имя16			Имя17			Имя18			Имя19			Имя20			Имя21			Имя22			Имя23			Имя24			Имя25			Имя26			Имя27			Имя28			Имя92			Имя30			Имя31			Имя32			Имя33			Имя34			Имя35		
																																																																																																						Отч2																										
Отчество (при наличии):																								Отч1			Отч2			Отч3			Отч4			Отч5			Отч6			Отч7			Отч8			Отч9			Отч10			Отч11			Отч12			Отч13			Отч14			Отч15			Отч16			Отч17			Отч18			Отч19			Отч20			Отч21			Отч22			Отч23			Отч24			Отч25			Отч26			Отч27			Отч28			Отч29			Отч30			Отч31			Отч32			Отч33			Отч34			Отч35		
																																																																																																																																
Гражданство:																								Гражд1			Гражд2			Гражд3			Гражд4			Гражд5			Гражд6			Гражд7			Гражд8			Гражд9			Гражд10			Гражд11			Гражд12			Гражд13			Гражд14			Гражд15			Гражд16			Гражд17			Гражд18			Гражд19			Гражд20			Гражд21			Гражд22			Гражд23			Гражд24			Гражд25			Гражд26			Гражд27			Гражд28			Гражд29			Гражд30			Гражд31			Гражд32			Гражд33			Гражд34			Гражд35		
"Место рождения (при
наличии сведений):"																																																																																																																																
																								МРожд1			МРожд2			МРожд3			МРожд4			МРожд5			МРожд6			МРожд7			МРожд8			МРожд9			МРожд10			МРожд11			МРожд12			МРожд13			МРожд14			МРожд15			МРожд16			МРожд17			МРожд18			МРожд19			МРожд20			МРожд21			МРожд22			МРожд23			МРожд24			МРожд25			МРожд26			МРожд27			МРожд28			МРожд29			МРожд30			МРожд31			МРожд32			МРожд33			МРожд34			МРожд35		
																								(государство, населенный пункт)																																																																																																								
МРожд36			МРожд37			МРожд38			МРожд39			МРожд40			МРожд41			МРожд42			МРожд43			МРожд44			МРожд45			МРожд46			МРожд47			МРожд48			МРожд49			МРожд50			МРожд51			МРожд52			МРожд53			МРожд54			МРожд55			МРожд56			МРожд57			МРожд58			МРожд59			МРожд60			МРожд61			МРожд62			МРожд63			МРожд64			МРожд65			МРожд66			МРожд67			МРожд68			МРожд69			МРожд70			МРожд71			МРожд72			МРожд73			МРожд74			МРожд75			МРожд76			МРожд77			МРожд78		
																																																																																																																																
Дата рождения:																					ДРД1			ДРД2									ДРМ1			ДРМ2						ДРГ1			ДРГ2			ДРГ3			ДРГ4			Пол:									ЭтоМужчина			 М						ЭтоЖенщина			 Ж																																																					
																					(число)												(месяц)									(год)																																																																																						

	Оборотная сторона																																																																																																																															
																																																																																																																																
Документ, удостоверяющий личность:																																				ДН1			ДН2			ДН3			ДН4			ДН5			ДН6			ДН7			ДН8			ДН9			ДН10			ДН11			ДН12			ДН13			ДН14			ДН15			ДН16			ДН17			ДН18			ДН19			ДН20			ДН21			ДН22			ДН23			ДН24			ДН25			ДН26			ДН27			ДН28			ДН29			ДН30			ДН31		
																																				(наименование)																																																																																												
Серия:								ДС1			ДС2			ДС3			ДС4			ДС5			ДС6			ДС7			ДС8			№											ДНом1			ДНом2			ДНом3			ДНом4			ДНом5			ДНом6			ДНом7			ДНом8			ДНом9			ДНом10			ДНом11			дата выдачи																					ДВыдД1			ДВыдД2							ДВыдМ1			ДВыдМ2							ДВыдГ1			ДВыдГ2			ДВыдГ3			ДВыдГ4		
																																																																																												(число)												(месяц)													(год)											
Кем выдан:															ДКВыд1			ДКВыд2			ДКВыд3			ДКВыд4			ДКВыд5			ДКВыд6			ДКВыд7			ДКВыд8			ДКВыд9			ДКВыд10			ДКВыд11			ДКВыд12			ДКВыд13			ДКВыд14			ДКВыд15			ДКВыд16			ДКВыд17			ДКВыд18			ДКВыд19			ДКВыд20			ДКВыд21			ДКВыд22			ДКВыд23			ДКВыд24			ДКВыд25			ДКВыд26			ДКВыд27			ДКВыд28			ДКВыд29			ДКВыд30			ДКВыд31			ДКВыд32			ДКВыд33			ДКВыд34			ДКВыд35			ДКВыд36			ДКВыд37			ДКВыд38		
																																																																																																																																
ДКВыд39			ДКВыд40			ДКВыд41			ДКВыд42			ДКВыд43			ДКВыд44			ДКВыд45			ДКВыд46			ДКВыд47			ДКВыд48			ДКВыд49			ДКВыд50			ДКВыд51			ДКВыд52			ДКВыд53			ДКВыд54			ДКВыд55			ДКВыд56			ДКВыд57			ДКВыд58			ДКВыд59			ДКВыд60			ДКВыд61			ДКВыд62			ДКВыд63			ДКВыд64			ДКВыд65			ДКВыд66			ДКВыд67			ДКВыд68			ДКВыд69			ДКВыд70			ДКВыд71			ДКВыд72			ДКВыд73			ДКВыд74			ДКВыд75			ДКВыд76			ДКВыд77			ДКВыд78			ДКВыд79			ДКВыд80			ДКВыд81		
																																																																																																																																
Номер миграционной карты (при наличии):																																							Миг1			Миг2			Миг3			Миг4			Миг5			Миг6			Миг7			Миг8			Миг9			Миг10			Миг11			Миг12			Миг13			Дата выдачи																					МКДВыдД1			МКДВыдД2						МКДВыдМ1			МКДВыдМ2						МКДВыдГ1			МКДВыдГ2			МКДВыдГ3			МКДВыдГ4		
																																																																																												(число)												(месяц)													(год)											
"Адрес постановки на учет по месту пребывания или
адрес регистрации по месту жительства (при наличии):"																																																																																																																																
																																																АдрФ1			АдрФ2			АдрФ3			АдрФ4			АдрФ5			АдрФ6			АдрФ7			АдрФ8			АдрФ9			АдрФ10			АдрФ11			АдрФ12			АдрФ13			АдрФ14			АдрФ15			АдрФ16			АдрФ17			АдрФ18			АдрФ19			АдрФ20			АдрФ21			АдрФ22			АдрФ23			АдрФ24			АдрФ25			АдрФ26			АдрФ27		
																																																																																																																																
АдрФ28			АдрФ29			АдрФ30			АдрФ31			АдрФ32			АдрФ33			АдрФ34			АдрФ35			АдрФ36			АдрФ37			АдрФ38			АдрФ39			АдрФ40			АдрФ41			АдрФ42			АдрФ43			АдрФ44			АдрФ45			АдрФ46			АдрФ47			АдрФ48			АдрФ49			АдрФ50			АдрФ51			АдрФ52			АдрФ53			АдрФ54			АдрФ55			АдрФ56			АдрФ57			АдрФ58			АдрФ59			АдрФ60			АдрФ61			АдрФ62			АдрФ63			АдрФ64			АдрФ65			АдрФ66			АдрФ67			АдрФ68			АдрФ69			АдрФ70		
																																																																																																																																
АдрФ71			АдрФ72			АдрФ73			АдрФ74			АдрФ75			АдрФ76			АдрФ77			АдрФ78			АдрФ79			АдрФ80			АдрФ81			АдрФ82			АдрФ83			АдрФ84			АдрФ85			АдрФ86			АдрФ87			АдрФ88			АдрФ89			АдрФ90			АдрФ91			АдрФ92			АдрФ93			АдрФ94			АдрФ95			АдрФ96			АдрФ97			АдрФ98			АдрФ99			АдрФ100			АдрФ101			АдрФ102			АдрФ103			АдрФ104			АдрФ105			АдрФ106			АдрФ107			АдрФ108			АдрФ109			АдрФ110			АдрФ111			АдрФ112			АдрФ113		
"Дата постановки на учет по месту пребывания или
регистрации по месту жительства:"																																																																																																																																
																																																ДРегД1			ДРегД2									ДРегМ1			ДРегМ2									ДРегГ1			ДРегГ2			ДРегГ3			ДРегГ4																																															
																																															(число)												(месяц)													(год)																																																								
																																																																																																																																
"3._Сведения о разрешении на работу или патенте, на основании которых иностранный гражданин осуществлял трудовую
деятельность (не заполняется в случае осуществления трудовой деятельности без разрешения на работу или патента):"																																																																																																																																
Наименование документа:																											Пат1			Пат2			Пат3			Пат4			Пат5			Пат6			Пат7			Пат8			Пат9			Пат10			Пат11			Пат12			Пат13			Пат14			Пат15			Пат16			Пат17			Пат18			Пат19			Пат20			Пат21			Пат22			Пат23			Пат24			Пат25			Пат26			Пат27			Пат28			Пат29			Пат30			Пат31			Пат32			Пат33			Пат34		
																																																																																																																																
Серия:															ПС1			ПС2			ПС3			ПС4			ПС5			ПС6			ПС7			ПС8			ПС9			ПС10			ПС11			ПС12			№						ПН1			ПН2			ПН3			ПН4			ПН5			ПН6			ПН7			ПН8			ПН9			ПН10			ПН11			ПН12																																						
																																																																																																																																
Дата выдачи:															ПВыдД1			ПВыдД2									ПВыдМ1			ПВыдМ2									ПВыдГ1			ПВыдГ2			ПВыдГ3			ПВыдГ4																																																																																
														(число)												(месяц)													(год)																																																																																									
Кем выдан:															ПКВыд1			ПКВыд2			ПКВыд3			ПКВыд4			ПКВыд5			ПКВыд6			ПКВыд7			ПКВыд8			ПКВыд9			ПКВыд10			ПКВыд11			ПКВыд12			ПКВыд13			ПКВыд14			ПКВыд15			ПКВыд16			ПКВыд17			ПКВыд18			ПКВыд19			ПКВыд20			ПКВыд21			ПКВыд22			ПКВыд23			ПКВыд24			ПКВыд25			ПКВыд26			ПКВыд27			ПКВыд28			ПКВыд29			ПКВыд30			ПКВыд31			ПКВыд32			ПКВыд33			ПКВыд34			ПКВыд35			ПКВыд36			ПКВыд37			ПКВыд38		
																																																																																																																																
Срок действия:															с			ПатСД1			ПатСД2									ПатСМ1			ПатСМ2									ПатСГ1			ПатСГ2			ПатСГ3			ПатСГ4			по									ПатПоД1			ПатПоД2									ПатПоМ1			ПатПоМ2									ПатПоГ1			ПатПоГ2			ПатПоГ3			ПатПоГ4																																
																	(число)												(месяц)													(год)																				(число)												(месяц)													(год)																																									
"Трудовая деятельность осуществляется иностранным гражданином без разрешения на работу или патента на основании (не
заполняется в случае осуществления трудовой деятельности на основании разрешения на работу или патента):"																																																																																																																																
Р1			Р2			Р3			Р4			Р5			Р6			Р7			Р8			Р9			Р10			Р11			Р12			Р13			Р14			Р15			Р16			Р17			Р18			Р19			Р20			Р21			Р22			Р23			Р24			Р25			Р26			Р27			Р28			Р29			Р30			Р31			Р32			Р33			Р34			Р35			Р36			Р37			Р38			Р39			Р40			Р41			Р42			Р43		
(наименование международного соглашения или ссылка на акт законодательства Российской Федерации,																																																																																																																																
РВ1			РВ2			РВ3			РВ4			РВ5			РВ6			РВ7			РВ8			РВ9			РВ10			РВ11			РВ12			РВ13			РВ14			РВ15			РВ16			РВ17			РВ18			РВ19			РВ20			РВ21			РВ22			РВ23			РВ24			РВ25			РВ26			РВ27			РВ28			РВ29			РВ30			РВ31			РВ32			РВ33			РВ34			РВ35			РВ36			РВ37			РВ38			РВ39			РВ40			РВ41			РВ42			РВ43		
предусматривающие осуществление трудовой деятельности без разрешения на работу или патента)																																																																																																																																
																																																																																																																																
																																																																																																																																
																																																																																																																																
																																																																																																																																
																																																																																																																																
Профессия (специальность, должность, вид трудовой деятельности), по которой иностранный гражданин осуществляет трудовую деятельность:																																																																																																																																
Д1			Д2			Д3			Д4			Д5			Д6			Д7			Д8			Д9			Д10			Д11			Д12			Д13			Д14			Д15			Д16			Д17			Д18			Д19			Д20			Д21			Д22			Д23			Д24			Д25			Д26			Д27			Д28			Д29			Д30			Д31			Д32			Д33			Д34			Д35			Д36			Д37			Д38			Д39			Д40			Д41			Д42			Д43		
"(указывается в соответствии с Общероссийским классификатором специальностей по образованию (ОКСО), Общероссийским классификатором 
профессий рабочих, должностей, служащих и тарифных разрядов (ОКПДТР) или Общероссийским классификатором занятий (ОКЗ). В случае 
трудовой деятельности у физического лица - гражданина Российской Федерации может быть указана профессия (специальность, должность, вид 
трудовой деятельности, не соответствующая данным классификаторам)"																																																																																																																																
Трудовая деятельность осуществляется иностранным гражданином на основании:																																																																											нужное отметить (																		x			или						v				)																						
																																																																																																																																
ЭтоТД				трудового договора																										ЭтоГПХ				гражданско-правового договора на выполнение работ (оказание услуг)																																																																																														
"Дата прекращения (расторжения) с иностранным гражданином трудового договора 
или гражданско-правового договора на выполнение работ (оказание услуг):"																																																																																																																																
																																																																																													ДУД1			ДУД2									ДУМ1			ДУМ2									ДУГ1			ДУГ2			ДУГ3			ДУГ4		
																																																																																												(число)												(месяц)													(год)											
																																																																																																																																
"Трудовой договор или гражданско-правовой договор прекращен (расторгнут) по инициативе
иностранного гражданина:"																																																																																																																																
																																																																																												(нужное отметить																						x			или						v			)		
																																																																																																																																
			да												нет																																																																																																																	
"    Об ответственности за сообщение ложных сведений в уведомлении или предоставление поддельных документов предупрежден.
С обработкой, передачей и хранением персональных данных согласен."																																																																																																																																
    Достоверность сведений, изложенных в настоящем уведомлении, подтверждаю:																																																																																																																																
Специалист по кадрам                    [ФИОПрием]																																																																																																																																
"(должность, подпись и фамилия, имя, отчество (при наличии) лица, уполномоченного от имени работодателя (заказчика работ, услуг) 
подписывать уведомление (для физического лица - подпись и фамилия, имя, отчество (при наличии))"																																																																																																																																
"					"																	20						 г.																																																																												Место печати																								
Уведомление подано по доверенности №																																					ДовНомер													от "					ДовДень			"		ДовМесяц															20			ДовГод			 г.																																															
Паспортные данные лица, подавшего уведомление по доверенности:																																																																																																																																
Фамилия, имя, отчество (при наличии)																																			ФИОПрием																																																																																													
Серия:							ПаспСер								Номер:									ПаспНормОтв										Выдан: "									ПаспДеньОтв			"		ПаспМесяцОтв															20			ПаспГодОтв			 г.																																																											
Кем выдан:											ПаспКемВыданОтв																																																																																																																					
																																															(подпись лица, подавшего уведомление по доверенности)																																																																																	
																																																																																																																																