﻿																									
																Директору									
																НазваниеОрганизацииСокращенное									
																(наименование организации)									
																ФИОРук									
																(ФИО директора)									
																									
																									
																ФИО									
																 (ФИО  прописывается без сокращений)									
																									
																									
																									
	ЗАЯВЛЕНИЕ																								
																									
	     Прошу заработную плату и все причитающиеся мне выплаты перечислять																								
	на расчетный счет №						НомерЛицевогоСчета																в		
	[Банк][БИК]																								
	(реквизиты банка: наименование, БИК)																								
																									
																									
																									
																									
		ДатаПриема																ФамилияИО							
		(дата)					(подпись)											(расшифровка)							
																									
																									
																									
																									
																									
																									
																									
																									
																									
																									
																									
																									
																									
																									
																									
																									
																									
																									
																									
																									
																									
																									
																									
																									
																									
																									
																									
																									
																									
																									
																									

																									
																									
																									

																									