﻿Form\Форма\Форма.bsl-->8381cc88-1e42-4f26-a4d6-04aa4848489d.0 (373, 422)
Form\ФормаПроверка\Форма.bsl-->49470e76-addc-42e2-8353-8019145f1e2c.0 (511, 583)
Макеты\УведомлениеОбОтпуске.mxl-->efa9aa96-7b63-489b-9ea2-33fc4e4cc140.0
