﻿49470e76-addc-42e2-8353-8019145f1e2c-->und\49470e76-addc-42e2-8353-8019145f1e2c
49470e76-addc-42e2-8353-8019145f1e2c.0-->und\49470e76-addc-42e2-8353-8019145f1e2c.0
86a3bc52-204d-4b21-b171-ac47e91313ee-->und\86a3bc52-204d-4b21-b171-ac47e91313ee
86a3bc52-204d-4b21-b171-ac47e91313ee.0-->und\86a3bc52-204d-4b21-b171-ac47e91313ee.0
a90b5393-ec8a-410a-ad7a-3ce7c0b1b993-->und\a90b5393-ec8a-410a-ad7a-3ce7c0b1b993
a90b5393-ec8a-410a-ad7a-3ce7c0b1b993.0-->und\a90b5393-ec8a-410a-ad7a-3ce7c0b1b993.0
cab0acd2-d376-41eb-bf0b-9c487cabf7a7-->und\cab0acd2-d376-41eb-bf0b-9c487cabf7a7
ce979a67-53d1-45f1-8703-0972ac380159.0\info-->und\ce979a67-53d1-45f1-8703-0972ac380159.0\info
ce979a67-53d1-45f1-8703-0972ac380159.0\text-->ObjectModule.bsl
copyinfo-->und\copyinfo
e4ae2457-fb3b-497c-84f8-c0060ca57e8a-->und\e4ae2457-fb3b-497c-84f8-c0060ca57e8a
e4ae2457-fb3b-497c-84f8-c0060ca57e8a.0-->und\e4ae2457-fb3b-497c-84f8-c0060ca57e8a.0
root-->und\root
version-->und\version
versions-->und\versions
