﻿49470e76-addc-42e2-8353-8019145f1e2c-->und\49470e76-addc-42e2-8353-8019145f1e2c
49470e76-addc-42e2-8353-8019145f1e2c.0-->und\49470e76-addc-42e2-8353-8019145f1e2c.0
831e27fb-78a0-44c2-a9bf-2ed168969158-->und\831e27fb-78a0-44c2-a9bf-2ed168969158
831e27fb-78a0-44c2-a9bf-2ed168969158.0-->und\831e27fb-78a0-44c2-a9bf-2ed168969158.0
cab0acd2-d376-41eb-bf0b-9c487cabf7a7-->und\cab0acd2-d376-41eb-bf0b-9c487cabf7a7
ce979a67-53d1-45f1-8703-0972ac380159.0\info-->und\ce979a67-53d1-45f1-8703-0972ac380159.0\info
ce979a67-53d1-45f1-8703-0972ac380159.0\text-->ObjectModule.bsl
copyinfo-->und\copyinfo
root-->und\root
version-->und\version
versions-->und\versions
